
0:

0	118	-297.03	0	0	0
0.05	130	96.9527	-1.55459	-0.0612192	-0.0241021
0.1	128	31.2888	-1.79591	-0.151741	-0.0597405
0.15	127	-1.5431	-1.38058	-0.21493	-0.0846181
0.2	118	-297.03	4.12369	-0.0365583	-0.014393
0.25	126	-34.375	3.3899	0.159296	0.0627151
0.3	127	-1.5431	4.2977	0.343085	0.135073
0.35	127	-1.5431	4.05638	0.551745	0.217222
0.4	127	-1.5431	3.48675	0.735205	0.289451
0.45	129	64.1207	3.57375	0.9066	0.356929
0.5	126	-34.375	4.64572	1.13652	0.447448
0.55	128	31.2888	5.38936	1.39377	0.548728
0.6	128	31.2888	5.64052	1.66932	0.657214
0.65	127	-1.5431	4.90673	1.93117	0.760303
0.7	129	64.1207	5.32205	2.17356	0.855734
0.75	126	-34.375	4.91658	2.42441	0.954493
0.8	127	-1.5431	5.00358	2.68043	1.05529
0.85	125	-67.2069	5.41891	2.95311	1.16264
0.9	127	-1.5431	6.16255	3.23917	1.27526
0.95	125	-67.2069	5.92124	3.54107	1.39412
1	126	-34.375	5.67992	3.81942	1.50371
1.05	129	64.1207	4.94613	4.07175	1.60305
1.1	128	31.2888	5.36145	4.32596	1.70313
1.15	126	-34.375	4.95598	4.59109	1.80752
1.2	128	31.2888	6.02794	4.86385	1.9149
1.25	127	-1.5431	6.60742	5.17216	2.03628
1.3	126	-34.375	6.53027	5.50943	2.16907
1.35	126	-34.375	5.79648	5.82233	2.29226
1.4	130	96.9527	5.88348	6.10922	2.4052
1.45	126	-34.375	5.64217	6.39224	2.51663
1.5	127	-1.5431	5.72917	6.67223	2.62686
1.55	127	-1.5431	5.15954	6.93194	2.72911
1.6	129	64.1207	5.73902	7.19846	2.83404
1.65	126	-34.375	6.3185	7.51284	2.95781
1.7	126	-34.375	6.24135	7.8365	3.08523
1.75	128	31.2888	7.14915	8.16368	3.21405
1.8	126	-34.375	7.89279	8.55185	3.36687
1.85	126	-34.375	8.8006	8.98376	3.53691
1.9	128	31.2888	8.8876	9.41921	3.70835
1.95	129	64.1207	8.81045	9.83766	3.8731
2	126	-34.375	7.42001	10.2482	4.03471
2.05	128	31.2888	7.67118	10.6203	4.18123
2.1	127	-1.5431	6.60907	10.9673	4.31783
2.15	126	-34.375	6.69607	11.3096	4.45259
2.2	127	-1.5431	6.78307	11.6587	4.59003
2.25	126	-34.375	7.03424	12.0088	4.72789
2.3	127	-1.5431	6.13629	12.3305	4.85453
2.35	125	-67.2069	5.23833	12.613	4.96576
2.4	126	-34.375	5.32534	12.8778	5.06999
2.45	125	-67.2069	5.08402	13.1435	5.17463
2.5	125	-67.2069	4.67855	13.3973	5.27452
2.55	128	31.2888	5.09387	13.6414	5.37063
2.6	129	64.1207	5.83752	13.9112	5.47685
2.65	128	31.2888	5.76036	14.196	5.58899
2.7	126	-34.375	5.51905	14.4836	5.70219
2.75	127	-1.5431	5.77021	14.7689	5.81452
2.8	127	-1.5431	6.18553	15.0725	5.93406
2.85	127	-1.5431	6.92918	15.3912	6.05951
2.9	127	-1.5431	8.1653	15.7691	6.20833
2.95	126	-34.375	7.59566	16.1564	6.36079
3	127	-1.5431	8.17515	16.5464	6.51432
3.05	127	-1.5431	7.93383	16.944	6.67086
3.1	127	-1.5431	8.185	17.3476	6.82976
3.15	128	31.2888	7.94368	17.7473	6.98714
3.2	125	-67.2069	8.68733	18.1703	7.15366
3.25	127	-1.5431	7.78937	18.5738	7.31253
3.3	127	-1.5431	7.71222	18.962	7.46535
3.35	127	-1.5431	7.96338	19.3455	7.61633
3.4	127	-1.5431	7.88623	19.735	7.76967
3.45	126	-34.375	7.97323	20.1345	7.92698
3.5	126	-34.375	7.89608	20.5368	8.08536
3.55	125	-67.2069	7.32644	20.9344	8.2419
3.6	126	-34.375	6.92097	21.2855	8.38012
3.65	127	-1.5431	7.17213	21.6458	8.52198
3.7	127	-1.5431	6.93082	22.004	8.66298
3.75	128	31.2888	7.18198	22.3508	8.79954
3.8	128	31.2888	6.77651	22.6889	8.93265
3.85	127	-1.5431	7.52015	23.0544	9.07653
3.9	128	31.2888	8.75627	23.4594	9.236
3.95	126	-34.375	8.84328	23.9075	9.41238
4	128	31.2888	8.10948	24.3286	9.5782
4.05	126	-34.375	8.19649	24.7377	9.73926
4.1	127	-1.5431	8.44765	25.161	9.90591
4.15	128	31.2888	7.71386	25.555	10.061
4.2	127	-1.5431	7.47255	25.9419	10.2133
4.25	128	31.2888	6.90291	26.2945	10.3522
4.3	128	31.2888	6.82576	26.64	10.4882
4.35	127	-1.5431	6.58444	26.975	10.6201
4.4	126	-34.375	6.34313	27.2997	10.7479
4.45	126	-34.375	5.60933	27.5983	10.8655
4.5	125	-67.2069	4.71138	27.861	10.9689
4.55	127	-1.5431	4.30591	28.0929	11.0602
4.6	127	-1.5431	3.57211	28.2757	11.1321
4.65	127	-1.5431	3.00248	28.4349	11.1948
4.7	126	-34.375	2.76116	28.5722	11.2489
4.75	126	-34.375	2.02737	28.7041	11.3008
4.8	126	-34.375	1.12942	28.782	11.3315
4.85	127	-1.5431	0.888103	28.8306	11.3506
4.9	126	-34.375	0.31847	28.8679	11.3653
4.95	127	-1.5431	0.897953	28.9039	11.3795
5	127	-1.5431	1.47744	28.9729	11.4067
5.05	127	-1.5431	1.89276	29.0669	11.4436
5.1	128	31.2888	1.65145	29.1528	11.4775
5.15	127	-1.5431	2.39509	29.2644	11.5214
5.2	128	31.2888	2.97457	29.3903	11.571
5.25	126	-34.375	2.89742	29.5476	11.6329
5.3	125	-67.2069	2.82026	29.7026	11.6939
5.35	128	31.2888	3.39975	29.8489	11.7515
5.4	128	31.2888	3.32259	30.0168	11.8176
5.45	126	-34.375	2.91712	30.1701	11.878
5.5	127	-1.5431	2.34748	30.3007	11.9294
5.55	128	31.2888	2.59865	30.4201	11.9764
5.6	127	-1.5431	2.02901	30.5364	12.0222
5.65	127	-1.5431	1.95186	30.639	12.0626
5.7	129	64.1207	1.38222	30.7049	12.0885
5.75	125	-67.2069	0.320111	30.7489	12.1059
5.8	126	-34.375	0.242956	30.7636	12.1117
5.85	126	-34.375	1.31492	30.8048	12.1279
5.9	126	-34.375	0.745285	30.8693	12.1533
5.95	126	-34.375	1.16061	30.9208	12.1736
6	128	31.2888	1.57593	30.9899	12.2007
6.05	127	-1.5431	0.677979	31.0387	12.2199
6.1	126	-34.375	0.108345	31.0614	12.2289
6.15	127	-1.5431	-0.132969	31.0581	12.2276
6.2	128	31.2888	-0.866763	31.0305	12.2167
6.25	127	-1.5431	-0.943918	30.976	12.1953
6.3	126	-34.375	-0.200275	30.9554	12.1872
6.35	126	-34.375	0.215049	30.972	12.1937
6.4	129	64.1207	0.137894	30.9724	12.1939
6.45	128	31.2888	0.0607391	30.9764	12.1954
6.5	127	-1.5431	0.147744	30.9748	12.1948
6.55	129	64.1207	0.234748	30.9784	12.1962
6.6	127	-1.5431	0.814232	31.0127	12.2097
6.65	127	-1.5431	1.39372	31.0759	12.2346
6.7	127	-1.5431	0.824081	31.1328	12.257
6.75	127	-1.5431	1.07525	31.1809	12.2759
6.8	126	-34.375	1.49057	31.2531	12.3044
6.85	129	64.1207	2.07005	31.3435	12.34
6.9	129	64.1207	2.64954	31.4523	12.3828
6.95	126	-34.375	2.0799	31.5785	12.4325
7	126	-34.375	1.83859	31.6821	12.4733
7.05	126	-34.375	1.43311	31.7612	12.5044
7.1	127	-1.5431	1.68428	31.8406	12.5357
7.15	126	-34.375	1.44296	31.9227	12.568
7.2	126	-34.375	1.20165	31.9812	12.591
7.25	127	-1.5431	2.27361	32.0786	12.6294
7.3	127	-1.5431	2.85309	32.2049	12.6791
7.35	126	-34.375	3.26842	32.3545	12.738
7.4	127	-1.5431	3.0271	32.5182	12.8025
7.45	127	-1.5431	3.44243	32.6822	12.867
7.5	127	-1.5431	3.69359	32.8728	12.942
7.55	127	-1.5431	2.63148	33.0389	13.0074
7.6	126	-34.375	3.21096	33.1922	13.0678
7.65	128	31.2888	3.29797	33.3645	13.1356
7.7	127	-1.5431	3.54913	33.5232	13.1981
7.75	127	-1.5431	2.9795	33.6846	13.2616
7.8	126	-34.375	2.90234	33.8347	13.3208
7.85	126	-34.375	2.98935	33.9859	13.3803
7.9	127	-1.5431	3.07635	34.1357	13.4393
7.95	127	-1.5431	2.9992	34.2841	13.4977
8	128	31.2888	2.75788	34.4271	13.554
8.05	129	64.1207	2.84489	34.5579	13.6055
8.1	126	-34.375	3.26021	34.7169	13.6681
8.15	128	31.2888	3.67553	34.8926	13.7372
8.2	126	-34.375	4.09086	35.0964	13.8175
8.25	126	-34.375	3.35706	35.2799	13.8897
8.3	126	-34.375	3.60823	35.4448	13.9547
8.35	126	-34.375	3.69523	35.6363	14.03
8.4	126	-34.375	3.9464	35.8394	14.11
8.45	127	-1.5431	3.54092	36.0281	14.1843
8.5	127	-1.5431	3.79209	36.1931	14.2493
8.55	126	-34.375	3.55077	36.3831	14.324
8.6	129	64.1207	3.63778	36.556	14.3921
8.65	128	31.2888	3.56062	36.7284	14.46
8.7	127	-1.5431	3.48347	36.9076	14.5306
8.75	129	64.1207	4.22711	37.0862	14.6009
8.8	128	31.2888	4.80659	37.3135	14.6904
8.85	127	-1.5431	5.55024	37.564	14.789
8.9	126	-34.375	4.9806	37.8263	14.8922
8.95	129	64.1207	5.23177	38.0724	14.9891
9	126	-34.375	5.15461	38.3474	15.0974
9.05	129	64.1207	4.74914	38.5866	15.1916
9.1	128	31.2888	4.83614	38.8252	15.2855
9.15	127	-1.5431	4.43067	39.051	15.3744
9.2	126	-34.375	4.35351	39.2737	15.4621
9.25	128	31.2888	4.60468	39.5015	15.5518
9.3	128	31.2888	4.03504	39.7124	15.6348
9.35	128	31.2888	4.94285	39.935	15.7225
9.4	127	-1.5431	4.04489	40.1604	15.8112
9.45	127	-1.5431	3.80358	40.3531	15.887
9.5	127	-1.5431	3.72642	40.5444	15.9624
9.55	127	-1.5431	3.15679	40.7032	16.0249
9.6	126	-34.375	2.75131	40.8564	16.0852
9.65	129	64.1207	3.16664	40.9984	16.1411
9.7	128	31.2888	3.58196	41.1711	16.2091
9.75	128	31.2888	3.66897	41.3472	16.2784
9.8	126	-34.375	4.41261	41.5524	16.3592
9.85	126	-34.375	4.99209	41.7955	16.4549
9.9	128	31.2888	4.2583	42.02	16.5433
9.95	126	-34.375	4.67362	42.2472	16.6328

1:

0	135	-37.3034	0	0	0
0.05	136	-2.79517	-0.139758	-0.0245483	-0.00966469
0.1	137	31.7131	-0.279517	-0.0388304	-0.0152876
0.15	136	-2.79517	-0.419275	-0.0609632	-0.0240012
0.2	135	-37.3034	-0.0414099	-0.0564383	-0.0222198
0.25	136	-2.79517	-1.04387	-0.0830571	-0.0326996
0.3	134	-71.8117	-0.838551	-0.109762	-0.0432134
0.35	135	-37.3034	0.22948	-0.127064	-0.0500251
0.4	135	-37.3034	0.952428	-0.0978654	-0.0385297
0.45	137	31.7131	-0.567661	-0.0929092	-0.0365784
0.5	134	-71.8117	-1.0525	-0.122547	-0.048247
0.55	135	-37.3034	-0.674636	-0.157448	-0.0619875
0.6	137	31.7131	-0.296771	-0.182946	-0.0720258
0.65	136	-2.79517	0.0810944	-0.181785	-0.071569
0.7	137	31.7131	0.631501	-0.175535	-0.0691082
0.75	140	135.238	1.00937	-0.142627	-0.0561523
0.8	135	-37.3034	0.524526	-0.113256	-0.044589
0.85	138	66.2213	0.557308	-0.0960494	-0.0378147
0.9	138	66.2213	0.590091	-0.0728901	-0.0286969
0.95	136	-2.79517	-0.584915	-0.0825998	-0.0325196
1	135	-37.3034	-1.2423	-0.126041	-0.0496226
1.05	137	31.7131	-0.691891	-0.18251	-0.0718543
1.1	136	-2.79517	-1.00419	-0.220948	-0.0869873
1.15	138	66.2213	-0.453784	-0.274138	-0.107928
1.2	136	-2.79517	-0.0759182	-0.284279	-0.111921
1.25	138	66.2213	0.301947	-0.291056	-0.114589
1.3	136	-2.79517	0.33473	-0.278939	-0.109818
1.35	135	-37.3034	0.885137	-0.246203	-0.0969305
1.4	138	66.2213	1.60808	-0.185948	-0.0732078
1.45	136	-2.79517	1.46833	-0.105073	-0.0413675
1.5	135	-37.3034	1.84619	-0.01307	-0.00514567
1.55	137	31.7131	3.60439	0.135786	0.0534589
1.6	137	31.7131	3.63717	0.308711	0.12154
1.65	138	66.2213	3.84249	0.485001	0.190945
1.7	134	-71.8117	3.01257	0.662067	0.260656
1.75	135	-37.3034	2.52773	0.802813	0.316068
1.8	138	66.2213	2.04289	0.902926	0.355483
1.85	136	-2.79517	1.55805	0.991737	0.390448
1.9	135	-37.3034	0.900666	1.05717	0.416208
1.95	137	31.7131	1.45107	1.11561	0.439218
2	139	100.73	3.38181	1.21366	0.477817
2.05	136	-2.79517	2.89697	1.37977	0.543215
2.1	136	-2.79517	2.75721	1.51301	0.595672
2.15	138	66.2213	2.96253	1.64875	0.649114
2.2	136	-2.79517	2.47769	1.77146	0.697427
2.25	135	-37.3034	3.20064	1.93033	0.759971
2.3	134	-71.8117	2.37072	2.08048	0.819085
2.35	137	31.7131	2.74858	2.20207	0.866957
2.4	135	-37.3034	2.0912	2.33048	0.917512
2.45	137	31.7131	2.12398	2.43206	0.957504
2.5	139	100.73	1.81168	2.50595	0.986593
2.55	136	-2.79517	2.01701	2.60649	1.02618
2.6	137	31.7131	2.39487	2.71644	1.06946
2.65	136	-2.79517	1.21987	2.80214	1.10321
2.7	136	-2.79517	0.735026	2.85671	1.12469
2.75	135	-37.3034	-0.0948977	2.87495	1.13187
2.8	136	-2.79517	-0.234656	2.86291	1.12713
2.85	136	-2.79517	-0.892038	2.83094	1.11454
2.9	137	31.7131	-1.0318	2.77301	1.09173
2.95	136	-2.79517	-0.826473	2.7331	1.07602
3	136	-2.79517	-0.79369	2.68017	1.05519
3.05	137	31.7131	-0.243283	2.6539	1.04484
3.1	137	31.7131	-0.728124	2.62667	1.03412
3.15	135	-37.3034	0.167365	2.60799	1.02677
3.2	138	66.2213	0.372689	2.61338	1.02889
3.25	135	-37.3034	0.750555	2.64974	1.0432
3.3	136	-2.79517	0.610796	2.69119	1.05952
3.35	136	-2.79517	0.643579	2.7291	1.07445
3.4	136	-2.79517	0.158738	2.75226	1.08357
3.45	136	-2.79517	0.536603	2.77878	1.09401
3.5	137	31.7131	0.569386	2.81126	1.10679
3.55	137	31.7131	0.947252	2.84537	1.12023
3.6	136	-2.79517	0.289869	2.87595	1.13226
3.65	137	31.7131	1.3579	2.9099	1.14563
3.7	135	-37.3034	0.0103525	2.94375	1.15896
3.75	136	-2.79517	0.0431353	2.94215	1.15833
3.8	136	-2.79517	0.766083	2.97066	1.16955
3.85	135	-37.3034	0.798866	3.00943	1.18482
3.9	136	-2.79517	1.00419	3.06106	1.20514
3.95	135	-37.3034	1.89968	3.15574	1.24242
4	136	-2.79517	2.62263	3.27449	1.28917
4.05	134	-71.8117	2.48287	3.40005	1.3386
4.1	137	31.7131	2.51565	3.52984	1.3897
4.15	136	-2.79517	2.54843	3.65696	1.43975
4.2	135	-37.3034	2.06359	3.77191	1.485
4.25	136	-2.79517	1.23367	3.84191	1.51256
4.3	138	66.2213	1.78408	3.92132	1.54383
4.35	138	66.2213	1.29924	3.9877	1.56996
4.4	136	-2.79517	0.12423	4.01862	1.58214
4.45	135	-37.3034	-0.0155287	4.03048	1.5868
4.5	139	100.73	1.39758	4.06037	1.59857
4.55	135	-37.3034	0.912743	4.11088	1.61846
4.6	137	31.7131	2.32586	4.20357	1.65495
4.65	135	-37.3034	2.1861	4.31947	1.70058
4.7	135	-37.3034	2.04634	4.43011	1.74414
4.75	137	31.7131	2.42421	4.53203	1.78427
4.8	135	-37.3034	2.80207	4.67442	1.84032
4.85	136	-2.79517	2.48977	4.80464	1.89159
4.9	135	-37.3034	1.65985	4.90889	1.93264
4.95	135	-37.3034	1.52009	4.99408	1.96617
5	136	-2.79517	0.172541	5.0395	1.98405
5.05	137	31.7131	0.722948	5.04946	1.98798
5.1	137	31.7131	0.928272	5.08435	2.00171
5.15	135	-37.3034	0.788514	5.13296	2.02085
5.2	135	-37.3034	-0.731575	5.1349	2.02161
5.25	137	31.7131	-1.04387	5.08067	2.00026
5.3	138	66.2213	-1.01109	5.0324	1.98126
5.35	137	31.7131	-1.32339	4.96161	1.95339
5.4	137	31.7131	-1.29061	4.88901	1.92481
5.45	135	-37.3034	-2.12053	4.80338	1.89109
5.5	139	100.73	-1.57013	4.69351	1.84784
5.55	136	-2.79517	-1.19226	4.63704	1.82561
5.6	135	-37.3034	-1.6771	4.57359	1.80062
5.65	136	-2.79517	-1.29924	4.50918	1.77527
5.7	136	-2.79517	-1.09391	4.46108	1.75633
5.75	139	100.73	-0.543505	4.41548	1.73838
5.8	137	31.7131	-0.683263	4.36721	1.71937
5.85	135	-37.3034	-1.1681	4.31971	1.70067
5.9	137	31.7131	-1.65295	4.25746	1.67617
5.95	135	-37.3034	-2.65541	4.14423	1.63159
6	137	31.7131	-2.79517	4.00071	1.57508
6.05	137	31.7131	-2.07222	3.87954	1.52738
6.1	137	31.7131	-2.21198	3.7626	1.48134
6.15	136	-2.79517	-2.52428	3.63867	1.43255
6.2	135	-37.3034	-2.83658	3.51551	1.38406
6.25	136	-2.79517	-2.63125	3.39141	1.3352
6.3	138	66.2213	-1.73577	3.28188	1.29208
6.35	135	-37.3034	-1.53044	3.18521	1.25402
6.4	137	31.7131	-2.87799	3.05567	1.20302
6.45	136	-2.79517	-3.01775	2.90965	1.14553
6.5	137	31.7131	-3.33005	2.73508	1.0768
6.55	135	-37.3034	-3.12472	2.57336	1.01313
6.6	136	-2.79517	-2.74686	2.43226	0.957584
6.65	136	-2.79517	-2.71407	2.279	0.897244
6.7	137	31.7131	-3.19892	2.12047	0.834832
6.75	135	-37.3034	-3.8563	1.94115	0.764234
6.8	136	-2.79517	-3.65097	1.74708	0.687828
6.85	136	-2.79517	-3.79073	1.5581	0.613427
6.9	136	-2.79517	-3.58541	1.39061	0.547482
6.95	137	31.7131	-3.38008	1.2118	0.477089
7	136	-2.79517	-3.86492	1.02602	0.403944
7.05	137	31.7131	-3.83214	0.845319	0.332803
7.1	137	31.7131	-3.62682	0.650731	0.256193
7.15	136	-2.79517	-3.76658	0.462958	0.182267
7.2	138	66.2213	-3.04363	0.283727	0.111704
7.25	136	-2.79517	-3.18339	0.1208	0.0475592
7.3	135	-37.3034	-4.01331	-0.0568782	-0.022393
7.35	136	-2.79517	-2.42766	-0.194096	-0.0764158
7.4	135	-37.3034	-3.08504	-0.333125	-0.131152
7.45	136	-2.79517	-3.39734	-0.498985	-0.196451
7.5	135	-37.3034	-4.05472	-0.674421	-0.26552
7.55	134	-71.8117	-4.02194	-0.862021	-0.339378
7.6	137	31.7131	-3.98915	-1.06869	-0.420743
7.65	135	-37.3034	-3.95637	-1.2763	-0.502481
7.7	136	-2.79517	-3.40596	-1.44173	-0.56761
7.75	135	-37.3034	-3.0281	-1.5874	-0.624961
7.8	137	31.7131	-2.47769	-1.72367	-0.67861
7.85	137	31.7131	-2.27237	-1.84018	-0.724482
7.9	137	31.7131	-2.06704	-1.95074	-0.768009
7.95	137	31.7131	-1.68918	-2.05363	-0.808514
8	138	66.2213	-1.13877	-2.13589	-0.840901
8.05	136	-2.79517	-1.10599	-2.182	-0.859057
8.1	136	-2.79517	-0.728124	-2.22217	-0.874869
8.15	135	-37.3034	-1.55805	-2.27622	-0.89615
8.2	137	31.7131	-1.00764	-2.3226	-0.914408
8.25	136	-2.79517	-1.31994	-2.38372	-0.938473
8.3	136	-2.79517	-1.4597	-2.4596	-0.968347
8.35	137	31.7131	-1.25438	-2.52953	-0.995877
8.4	136	-2.79517	-1.73922	-2.60213	-1.02446
8.45	135	-37.3034	-3.08676	-2.7214	-1.07142
8.5	135	-37.3034	-3.05398	-2.85974	-1.12588
8.55	135	-37.3034	-3.71136	-3.02405	-1.19057
8.6	137	31.7131	-4.36875	-3.23071	-1.27193
8.65	135	-37.3034	-4.16342	-3.45127	-1.35877
8.7	135	-37.3034	-5.51097	-3.69779	-1.45582
8.75	136	-2.79517	-5.82327	-3.9953	-1.57295
8.8	134	-71.8117	-6.30811	-4.2929	-1.69012
8.85	135	-37.3034	-7.31057	-4.63371	-1.8243
8.9	137	31.7131	-7.62287	-5.01861	-1.97583
8.95	137	31.7131	-8.4528	-5.42948	-2.13759
9	137	31.7131	-8.07493	-5.85079	-2.30346
9.05	137	31.7131	-7.17944	-6.21783	-2.44797
9.1	136	-2.79517	-6.80158	-6.56253	-2.58367
9.15	135	-37.3034	-6.59625	-6.89437	-2.71432
9.2	137	31.7131	-6.04585	-7.20905	-2.83821
9.25	135	-37.3034	-6.35815	-7.51777	-2.95975
9.3	136	-2.79517	-6.32536	-7.84125	-3.08711
9.35	135	-37.3034	-6.8102	-8.1743	-3.21823
9.4	136	-2.79517	-6.60488	-8.50313	-3.34769
9.45	135	-37.3034	-7.26226	-8.84239	-3.48126
9.5	136	-2.79517	-7.22948	-9.199	-3.62165
9.55	136	-2.79517	-7.02416	-9.53843	-3.75529
9.6	137	31.7131	-6.64629	-9.89607	-3.89609
9.65	137	31.7131	-7.64876	-10.2572	-4.03829
9.7	137	31.7131	-6.92581	-10.6306	-4.18527
9.75	137	31.7131	-7.58319	-10.9963	-4.32923
9.8	135	-37.3034	-8.7582	-11.4069	-4.49089
9.85	136	-2.79517	-8.72541	-11.8443	-4.66311
9.9	135	-37.3034	-8.00246	-12.2456	-4.8211
9.95	137	31.7131	-8.31476	-12.6582	-4.98354
